<?xml version="1.0" encoding="utf-8"?>
<!-- Generator: Adobe Illustrator 18.1.1, SVG Export Plug-In . SVG Version: 6.00 Build 0)  -->
<svg version="1.1" id="Слой_1" xmlns="http://www.w3.org/2000/svg" xmlns:xlink="http://www.w3.org/1999/xlink" x="0px" y="0px"
	 viewBox="0 0 12.4 22" enable-background="new 0 0 12.4 22" xml:space="preserve">
<g>
	<g>
		<path d="M10.8,0H1.6C0.7,0,0,0.7,0,1.6v18.8C0,21.2,0.7,22,1.6,22h9.2c0.9,0,1.6-0.7,1.6-1.6V1.6C12.4,0.7,11.7,0,10.8,0L10.8,0z
			 M3.9,1h4.6c0.1,0,0.2,0.2,0.2,0.4c0,0.2-0.1,0.4-0.2,0.4H3.9c-0.1,0-0.2-0.2-0.2-0.4C3.7,1.1,3.8,1,3.9,1L3.9,1z M6.2,20.4
			c-0.6,0-1-0.5-1-1c0-0.6,0.5-1,1-1c0.6,0,1,0.5,1,1C7.2,19.9,6.8,20.4,6.2,20.4L6.2,20.4z M11.2,16.9h-10V2.7h10V16.9z M11.2,16.9
			"/>
	</g>
</g>
</svg>
